{
    "preset": "laravel",
    "rules": {
        "declare_strict_types": false,
        "fully_qualified_strict_types": true,
        "no_superfluous_phpdoc_tags": false,
        "no_unused_imports": true,
        "no_useless_else": true,
        "not_operator_with_successor_space": false,
        "phpdoc_to_return_type": true,
        "return_assignment": true,
        "single_line_comment_spacing": true,
        "nullable_type_declaration_for_default_null_value": true,
        "ordered_interfaces": {
            "order": "length"
        },
        "ordered_traits": true,
        "combine_consecutive_unsets": true,
        "curly_braces_position": true,
        "align_multiline_comment": true,
        "class_reference_name_casing": true,
        "lowercase_static_reference": true,
        "single_quote": true,
        "array_syntax": {
            "syntax": "short"
        },
        "list_syntax": {
            "syntax": "short"
        },
        "blank_line_before_statement": {
            "statements": [
                "declare"
            ]
        },
        "ordered_imports": {
            "imports_order": [
                "class",
                "function",
                "const"
            ],
            "sort_algorithm": "length"
        },
        "phpdoc_align": {
            "align": "left"
        },
        "phpdoc_types_order": {
            "sort_algorithm": "alpha",
            "null_adjustment": "always_last"
        },
        "phpdoc_add_missing_param_annotation": {
            "only_untyped": false
        },
        "phpdoc_order": {
            "order": [
                "param",
                "return",
                "throws"
            ]
        },
        "concat_space": {
            "spacing": "one"
        },
        "global_namespace_import": {
            "import_classes": true,
            "import_constants": false,
            "import_functions": null
        },
        "yoda_style": {
            "always_move_variable": false,
            "equal": false,
            "identical": false
        },
        "constant_case":{
            "case": "lower"
        }
    },
    "exclude": [
        "storage",
        "resources",
        "public"
    ]
}
